<svg 
 xmlns="http://www.w3.org/2000/svg"
 xmlns:xlink="http://www.w3.org/1999/xlink"
 width="17px" height="14px">
<path fill-rule="evenodd"  fill="rgb(77, 87, 222)"
 d="M16.175,11.491 L3.673,11.491 C3.299,11.491 2.996,11.191 2.996,10.819 L2.996,1.491 C2.996,1.120 3.299,0.818 3.673,0.818 L16.175,0.818 C16.549,0.818 16.852,1.120 16.852,1.491 L16.852,10.819 C16.852,11.191 16.549,11.491 16.175,11.491 ZM15.499,2.163 L4.350,2.163 L4.350,10.147 L15.499,10.147 L15.499,2.163 ZM14.303,13.328 C14.303,13.699 14.000,13.999 13.627,13.999 L1.124,13.999 C0.750,13.999 0.447,13.699 0.447,13.328 L0.447,3.999 C0.447,3.628 0.750,3.327 1.124,3.327 C1.498,3.327 1.801,3.628 1.801,3.999 L1.801,12.656 L13.627,12.656 C14.000,12.656 14.303,12.956 14.303,13.328 Z"/>
</svg>