<?xml version="1.0" standalone="no"?>
<!DOCTYPE svg PUBLIC "-//W3C//DTD SVG 1.1//EN" "http://www.w3.org/Graphics/SVG/1.1/DTD/svg11.dtd" >
<svg xmlns="http://www.w3.org/2000/svg">
<defs>
  <font id="glyphs" horiz-adv-x="20.079592781119853">
    <font-face font-family="glyphs"
      units-per-em="32" ascent="32"
      descent="0" />
    <missing-glyph horiz-adv-x="0" />
    <glyph glyph-name="arrow-btn"
      unicode="&#xEA01;"
      horiz-adv-x="20.079592781119853" d="M17.1402152343071 0L0.7329963541591 14.3341045812124A2.2211938917168 2.2211938917168 0 0 0 -0.0222095690247 16.0074039796391A2.2656177695511 2.2656177695511 0 0 0 0.7329963541591 17.6807033780657L17.1402152343071 32L20.1018070899295 28.6534012031467L5.5751990381017 16.0074039796391L20.0573832120952 3.3465987968533z" />
  </font>
</defs>
</svg>
